…
mydata$type <- c(rep("con",10), rep("exp",10))
mydata$id <- c(rep(1:10,2))
mydata$study_id = paste0(mydata$type, mydata$id)
mydata <- mydata %>%
  gather(key = week, value = data, week_1:week_8) %>%  
  mutate(week = gsub("_", "", week))
```

``` r
mydata %>% 
  group_by(study_id) 
```

    ## # A tibble: 160 x 5
    ## # Groups:   study_id [20]
    ##    type     id study_id week   data
    ##    <chr> <int> <chr>    <chr> <dbl>
    ##  1 con       1 con1     week1  0.2 
    ##  2 con       2 con2     week1  1.13
    ##  3 con       3 con3     week1  1.77
    ##  4 con       4 con4     week1  1.04
    ##  5 con       5 con5     week1  0.47
    ##  6 con       6 con6     week1  2.37
    ##  7 con       7 con7     week1  0.03
    ##  8 con       8 con8     week1 -0.08
    ##  9 con       9 con9     week1  0.08
    ## 10 con      10 con10    week1  2.14
    ## # ... with 150 more rows
…
``` r
homicide 
```

    ## # A tibble: 52,179 x 12
    ##    uid       reported_date victim_last victim_first victim_race victim_age
    ##    <chr>             <int> <chr>       <chr>        <chr>       <chr>     
    ##  1 Alb-0000~      20100504 GARCIA      JUAN         Hispanic    78        
    ##  2 Alb-0000~      20100216 MONTOYA     CAMERON      Hispanic    17        
    ##  3 Alb-0000~      20100601 SATTERFIELD VIVIANA      White       15        
    ##  4 Alb-0000~      20100101 MENDIOLA    CARLOS       Hispanic    32        
    ##  5 Alb-0000~      20100102 MULA        VIVIAN       White       72        
    ##  6 Alb-0000~      20100126 BOOK        GERALDINE    White       91        
    ##  7 Alb-0000~      20100127 MALDONADO   DAVID        Hispanic    52        
    ##  8 Alb-0000~      20100127 MALDONADO   CONNIE       Hispanic    52        
    ##  9 Alb-0000~      20100130 MARTIN-LEY~ GUSTAVO      White       56        
    ## 10 Alb-0000~      20100210 HERRERA     ISRAEL       Hispanic    43        
    ## # ... with 52,169 more rows, and 6 more variables: victim_sex <chr>,
    ## #   city <chr>, state <chr>, lat <dbl>, lon <dbl>, disposition <chr>
…
homicide_s <- homicide1 %>% 
  group_by(city_state) %>% 
  mutate(total_n = n()) %>%
  filter(disposition %in% c("Closed without arrest","Open/No arrest"))   %>% 
  mutate(unsolved = n()) %>% 
  group_by(city_state, total_n, unsolved) %>% 
  summarize()

homicide_s
```

    ## # A tibble: 50 x 3
    ## # Groups:   city_state, total_n [?]
    ##    city_state     total_n unsolved
    ##    <chr>            <int>    <int>
    ##  1 Albuquerque,NM     378      146
    ##  2 Atlanta,GA         973      373
    ##  3 Baltimore,MD      2827     1825
    ##  4 Baton Rouge,LA     424      196
    ##  5 Birmingham,AL      800      347
    ##  6 Boston,MA          614      310
    ##  7 Buffalo,NY         521      319
    ##  8 Charlotte,NC       687      206
    ##  9 Chicago,IL        5535     4073
    ## 10 Cincinnati,OH      694      309
    ## # ... with 40 more rows
…
  prop.test(city_homicides$unsolved, city_homicides$total_n) %>% 
    broom::tidy() %>% 
    select(estimate, conf.low, conf.high)
}

city_prop = 
  tibble(city_state = homicide_s$city_state) %>% 
  mutate(map(.x = homicide_s$city_state, ~city_prop_test(.x))) %>% 
  unnest

city_prop
```

    ## # A tibble: 50 x 4
    ##    city_state     estimate conf.low conf.high
    ##    <chr>             <dbl>    <dbl>     <dbl>
    ##  1 Albuquerque,NM    0.386    0.337     0.438
    ##  2 Atlanta,GA        0.383    0.353     0.415
    ##  3 Baltimore,MD      0.646    0.628     0.663
    ##  4 Baton Rouge,LA    0.462    0.414     0.511
    ##  5 Birmingham,AL     0.434    0.399     0.469
    ##  6 Boston,MA         0.505    0.465     0.545
    ##  7 Buffalo,NY        0.612    0.569     0.654
    ##  8 Charlotte,NC      0.300    0.266     0.336
    ##  9 Chicago,IL        0.736    0.724     0.747
    ## 10 Cincinnati,OH     0.445    0.408     0.483
    ## # ... with 40 more rows
…
